%YAML 1.1
%TAG !u! tag:unity3d.com,2011:
--- !u!1045 &1
EditorBuildSettings:
  m_ObjectHideFlags: 0
  serializedVersion: 2
  m_Scenes:
  - enabled: 0
    path: Assets/Scenes/SampleScene.unity
    guid: 9fc0d4010bbf28b4594072e72b8655ab
  - enabled: 0
    path: Assets/Scenes/Login.unity
    guid: e01159472d5c8b447b273db386ac229e
  - enabled: 0
    path: Assets/Scenes/MainGame.unity
    guid: a45d15c90a1cc7d4b842b8a57f13bbb9
  - enabled: 0
    path: 
    guid: 00000000000000000000000000000000
  - enabled: 1
    path: Assets/Scenes/LoginLama.unity
    guid: 6ab02b43737ffe74db8ae4cf8142fa70
  - enabled: 1
    path: Assets/Scenes/Residental 1.unity
    guid: 3e589a86a2fca1b4e99ea3036e4f667b
  - enabled: 1
    path: Assets/Scenes/LobbyNew.unity
    guid: 216535602b7d15e47b04b1d6b47daca1
  m_configObjects: {}
